[
	{
		"name": "Hurricane Florence"
		"incident_type": "Hurricane"
		"counties_affected":
			[
				"Duplin"
			]
		"state": "NC"
		"begin_date": "2018-09-08"
		"end_date": "2018-09-19"
	},

	{
		"name": "Hurricane Harvey"
		"incident_type": "Hurricane"
		"counties_affected":
			[
				"Harris"
			]
		"state": "TX"
		"begin_date": "2017-08-23"
		"end_date":	"2017-09-15"
	},

	{
		"name": "California Wildfires"
		"incident_type": "Fire"
		"counties_affected":
			[
				"Riverside",
				"San Diego",
				"Santa Barbara",
				"LA"
			]
		"state": "CA"
		"begin_date": "2017-12-04"
		"end_date":	"2017-12-29"
	}
]
