/Library/Frameworks/Python.framework/Versions/3.5/bin/python3.5 /Users/Eduardo/Developer/cs373-web-application/backend/main.py
 * Serving Flask app "main" (lazy loading)
 * Environment: production
   WARNING: Do not use the development server in a production environment.
   Use a production WSGI server instead.
 * Debug mode: off
 * Running on http://127.0.0.1:5000/ (Press CTRL+C to quit)
57314
Harvey Flood Relief in Texas, 2, 1
Hurricane Harvey Relief Fund, 354, 1
Mercy Corps Responds to Hurricane Florence, 1, 1
California Wildfire Disaster Relief for Immigrants, 1, 1
Hurricane Harvey Disaster Relief, 1, 1
127.0.0.1 - - [27/Nov/2018 13:40:04] "GET /projects HTTP/1.1" 200 -
Disaster Relief - Distribution Resources, 1, 1
Habitat for Humanity - Hurricane Michael Response, 0, 1
California Wildfires, 0, 1
Hurricane Michael Disaster Response, 1, 1
World Central Kitchen Hurricane Florence Response, 1, 1
Team Rubicon Global - Disaster Response Fund, 1, 1
Hurricane Harvey Psychological Support for Victims, 1, 1
Hurricane Florence First Response and Flood Relief, 1, 1
Emergency Fuel - Hurricane Michael, 1, 1
Help Texas Recover after Hurricane Harvey, 1, 1
Hurricane Florence: Help Babies in North Carolina, 1, 1
GlobalGiving Disaster Response Fund, 18, 1
Houston Harvey Recovery Direct Assistance, 1, 1
Hurricane Irma Relief Fund, 154, 1
Assist 1,000 Houston Hurricane Harvey Households, 1, 1
Hurricane Michael Veteran Relief Team Mission, 1, 1
Lone Star Disaster Relief Fund, 2, 1
Help Communities Recover After Hurricane Michael, 0, 1
Hurricane Michael: Help Babies in Florida, 1, 1
California Wildfire Relief: Helping Children, 3, 1
Emergency Fuel for Disaster Survivors, 1, 1
Hurricane Florence Relief Fund, 15, 1
BakerRipley/ Hurricane Harvey Relief, 2, 1
Hurricane Michael Response - Disaster Health Kits, 1, 1
Help Deliver Donated Product to Those in Need, 1, 1
Concert for 2017 Disaster Relief, 3, 1
Hurricane Harvey Texas Relief Fund, 1, 1
Hurricane Irma Children's Relief Fund, 1, 1
Food for Hurricane Michael Survivors, 1, 1
Hurricane Michael Relief Fund, 16, 1
Adopt-a-Rescuer!, 1, 1
Bridge to Self Reliance 2000 refugees San Diego CA, 4, 1
Disaster Relief-Hurricane Harvey, 2, 1
Emergency Response to Hurricane Florence, 1, 1
California Fires & Debris Flow: Relief & Recovery, 0, 1
Emergency Response to Hurricane Michael, 1, 1
Help Children Displaced by the Williston Fire, 0, 1
Target Hunger Hurricane Harvey Recovery Fund, 1, 1
Responding to Hurricane Florence, 1, 1
Rescuer Training (2017-2018), 1, 1
Ventura County Community Disaster Relief Fund, 1, 1
Stabilizing Communities after Hurricane Florence, 1, 1
Rio Grande Valley Flood Response & Recovery, 1, 1
Hurricane Florence Disaster Response, 1, 1
Hurricane Irma Psychotrauma Support for Victims, 1, 1
